[gd_scene load_steps=4 format=2]

[ext_resource path="res://Scenes/Character.tscn" type="PackedScene" id=1]
[ext_resource path="res://Script/bot.gd" type="Script" id=2]
[ext_resource path="res://Scenes/Weapons/BotWeapon.tscn" type="PackedScene" id=3]

[node name="bot" index="0" groups=[
"bot",
] instance=ExtResource( 1 )]
script = ExtResource( 2 )
droptableID = 0

[node name="Sprite" parent="." index="0"]
_sections_unfolded = [ "Offset", "Transform", "Z Index" ]

[node name="ThinkRay" type="RayCast2D" parent="." index="7"]
enabled = true
exclude_parent = true
cast_to = Vector2( 600, 0 )
collision_mask = 1
_sections_unfolded = [ "Transform" ]

[node name="Weapon" parent="Weapons" index="0" instance=ExtResource( 3 )]
accuracy = 1.0
fireRate = 4
MAX_AMMO = 50
damage = 5
type = 0

