[gd_scene load_steps=2 format=2]

[ext_resource path="res://Script/portal.gd" type="Script" id=1]

[node name="Portal" type="Area2D" index="0" groups=[
"portal",
]]
z_index = 10
z_as_relative = false
input_pickable = true
gravity_vec = Vector2( 0, 1 )
gravity = 98.0
linear_damp = 0.1
angular_damp = 1.0
audio_bus_override = false
audio_bus_name = "Master"
script = ExtResource( 1 )
_sections_unfolded = [ "Z Index" ]

[node name="Debug" type="Polygon2D" parent="." index="0"]
polygon = PoolVector2Array(  )
uv = PoolVector2Array(  )
splits = PoolIntArray(  )
color = Color( 1, 1, 1, 1 )
vertex_colors = PoolColorArray(  )
offset = Vector2( 0, 0 )
antialiased = false
texture = null
texture_offset = Vector2( 0, 0 )
texture_scale = Vector2( 1, 1 )
texture_rotation_degrees = 0.0
skeleton = NodePath("")
invert_enable = false
invert_border = 100.0
bones = [  ]
_sections_unfolded = [ "Visibility", "Z Index" ]

