[gd_scene load_steps=4 format=2]

[ext_resource path="res://Script/Weapon.gd" type="Script" id=1]
[ext_resource path="res://Scenes/Weapons/Bullet.tscn" type="PackedScene" id=2]
[ext_resource path="res://Spritesheets/cannon.png" type="Texture" id=3]

[node name="Weapon" type="Node2D" index="0"]
script = ExtResource( 1 )
_sections_unfolded = [ "Transform" ]
accuracy = 0.8
fireRate = 10
bulletScene = ExtResource( 2 )
staggerDistance = 64
MAX_AMMO = 50
damage = 1
type = 0

[node name="Sprite" type="Sprite" parent="." index="0"]
texture = ExtResource( 3 )
offset = Vector2( 0, 16 )
_sections_unfolded = [ "Offset" ]

[node name="bulletSpawn" type="Position2D" parent="." index="1"]
position = Vector2( 0, 36.501 )
_sections_unfolded = [ "Transform", "Z Index" ]

[node name="Timer" type="Timer" parent="." index="2"]
process_mode = 1
wait_time = 1.0
one_shot = true
autostart = false

[node name="AnimationPlayer" type="AnimationPlayer" parent="." index="3"]
root_node = NodePath("..")
autoplay = ""
playback_process_mode = 1
playback_default_blend_time = 0.0
playback_speed = 1.0
blend_times = [  ]

