[gd_scene load_steps=5 format=2]

[ext_resource path="res://Materials/SmearFrame.tres" type="Material" id=1]
[ext_resource path="res://icon.png" type="Texture" id=2]
[ext_resource path="res://Scenes/Tools/Tests/SmearTest.gd" type="Script" id=3]
[ext_resource path="res://Scenes/Tools/TrailEmitter.tscn" type="PackedScene" id=4]

[node name="Sprite" type="Sprite" index="0"]
material = ExtResource( 1 )
position = Vector2( -5.09628, 2.31642 )
texture = ExtResource( 2 )
script = ExtResource( 3 )
_sections_unfolded = [ "Material", "Offset", "Region" ]

[node name="Emitter" parent="." index="0" instance=ExtResource( 4 )]
visible = false
life = 0.2
uv_offset = Vector2( 0.5, 0 )
width = 48.0

